<svg width="15" height="16" viewBox="0 0 15 16" fill="none" xmlns="http://www.w3.org/2000/svg">
<rect x="0.4" y="2.17734" width="13.4222" height="13.4222" rx="1.6" stroke="#1661AB" stroke-width="0.8"/>
<rect x="3.95566" y="0.4" width="6.31111" height="2.75556" rx="1.37778" fill="white" stroke="#1661AB" stroke-width="0.8"/>
<path d="M3.55566 8H11.5557" stroke="#1661AB" stroke-width="0.8" stroke-linecap="round" stroke-linejoin="round"/>
<path d="M3.55566 10.668H8.00011" stroke="#1661AB" stroke-width="0.8" stroke-linecap="round" stroke-linejoin="round"/>
</svg>
