<svg width="24" height="20" viewBox="0 0 24 20" fill="none" xmlns="http://www.w3.org/2000/svg">
<path d="M23.3351 13.3858C23.1848 13.0476 22.9218 12.7845 22.5836 12.6342C22.2454 12.4839 21.8696 12.4839 21.5314 12.6342L16.4586 14.8888C16.4586 14.8137 16.4962 14.7385 16.4962 14.6634C16.4962 13.9494 15.9325 13.3858 15.2186 13.3858C15.2186 13.3858 15.2186 13.3858 15.181 13.3858H11.6863L9.0184 12.1457C8.45475 11.8827 7.85353 11.7324 7.2523 11.7324H5.18558V10.793H0V11.3566H4.62193V18.6089H1.05215V19.1726H5.18558V18.2331H6.72623L11.6112 19.8489C11.9494 19.9617 12.2876 19.9993 12.6258 19.9993C13.1518 19.9993 13.6403 19.8865 14.0913 19.6611L22.5836 15.227C23.2975 14.9264 23.6357 14.0997 23.3351 13.3858ZM22.3581 14.7009L13.8282 19.1726C13.1894 19.5108 12.4379 19.5483 11.7991 19.3229L6.87653 17.6695H5.18558V12.296H7.2523C7.77837 12.296 8.30445 12.4088 8.79294 12.6342L11.5736 13.9494H15.2186C15.6319 13.9494 15.9325 14.2876 15.9325 14.6634C15.9325 15.0767 15.5943 15.4149 15.181 15.4149H10.8972H10.8597C10.4839 15.4901 9.73236 15.8282 9.73236 16.5798H10.296C10.296 16.1289 10.8221 15.9785 10.9348 15.9785H15.2186C15.444 15.9785 15.6319 15.9034 15.8198 15.8282L21.7569 13.1979C22.1702 13.01 22.6587 13.2355 22.8466 13.6488C22.9969 14.0246 22.7715 14.5131 22.3581 14.7009Z" fill="#1661AB"/>
<path d="M18.4125 4.50009C18.1886 4.50137 17.9712 4.57535 17.7929 4.71089C17.6147 4.84643 17.4853 5.03619 17.4242 5.25162H17.0485C16.9945 4.61377 16.7437 4.00845 16.3308 3.51934L16.6051 3.24503C16.759 3.33095 16.9323 3.37621 17.1086 3.37655C17.3133 3.37768 17.5137 3.31778 17.6841 3.20449C17.8546 3.0912 17.9875 2.92966 18.0657 2.74051C18.144 2.55136 18.164 2.34318 18.1234 2.14257C18.0828 1.94195 17.9833 1.75799 17.8376 1.6142C17.6433 1.42122 17.3806 1.31291 17.1067 1.31291C16.8329 1.31291 16.5701 1.42122 16.3758 1.6142C16.28 1.70975 16.204 1.82339 16.1524 1.94854C16.1008 2.07368 16.0746 2.20782 16.0752 2.34319C16.0765 2.51935 16.1217 2.69241 16.2068 2.84672L15.9324 3.12102C15.4433 2.70807 14.838 2.45727 14.2002 2.40331V2.02754C14.4401 1.95952 14.6474 1.807 14.7837 1.59813C14.92 1.38926 14.9762 1.13813 14.9419 0.891091C14.9075 0.644048 14.785 0.417761 14.5969 0.253986C14.4088 0.0902107 14.1678 0 13.9183 0C13.6689 0 13.4279 0.0902107 13.2398 0.253986C13.0517 0.417761 12.9292 0.644048 12.8948 0.891091C12.8605 1.13813 12.9167 1.38926 13.053 1.59813C13.1893 1.807 13.3965 1.95952 13.6365 2.02754V2.40331C12.9987 2.45727 12.3933 2.70807 11.9042 3.12102L11.6299 2.84672C11.7149 2.69241 11.7601 2.51935 11.7614 2.34319C11.7621 2.20782 11.7359 2.07368 11.6843 1.94854C11.6327 1.82339 11.5567 1.70975 11.4608 1.6142C11.2638 1.42651 11.0021 1.32182 10.73 1.32182C10.4578 1.32182 10.1961 1.42651 9.99909 1.6142C9.85526 1.7587 9.75738 1.94253 9.71779 2.14253C9.6782 2.34253 9.69866 2.54978 9.77659 2.73818C9.85452 2.92658 9.98645 3.08772 10.1558 3.20131C10.3251 3.31491 10.5242 3.37587 10.7281 3.37655C10.9042 3.37524 11.0773 3.33004 11.2316 3.24503L11.5059 3.51934C11.093 4.00845 10.8422 4.61377 10.7882 5.25162H10.4124C10.3444 5.01166 10.1919 4.8044 9.98302 4.66808C9.77415 4.53176 9.52302 4.47559 9.27598 4.50993C9.02894 4.54427 8.80265 4.6668 8.63887 4.85491C8.4751 5.04303 8.38489 5.28403 8.38489 5.53345C8.38489 5.78287 8.4751 6.02387 8.63887 6.21198C8.80265 6.4001 9.02894 6.52263 9.27598 6.55697C9.52302 6.5913 9.77415 6.53513 9.98302 6.39882C10.1919 6.2625 10.3444 6.05523 10.4124 5.81527H10.7882C10.8422 6.45312 11.093 7.05845 11.5059 7.54756L11.2278 7.82562C11.0313 7.72179 10.8073 7.68191 10.587 7.71155C10.3667 7.74119 10.1612 7.83887 9.99909 7.99096C9.87858 8.11091 9.78953 8.25873 9.73984 8.42133C9.69015 8.58393 9.68134 8.75628 9.7142 8.9231C9.74707 9.08992 9.82059 9.24605 9.92824 9.37765C10.0359 9.50925 10.1744 9.61226 10.3314 9.67753C10.4883 9.7428 10.659 9.76833 10.8282 9.75185C10.9975 9.73537 11.16 9.67739 11.3015 9.58305C11.4429 9.4887 11.5589 9.36092 11.6391 9.21101C11.7194 9.06111 11.7614 8.89373 11.7614 8.72371C11.7601 8.54754 11.7149 8.37448 11.6299 8.22018L11.9042 7.94587C12.3933 8.35883 12.9987 8.60963 13.6365 8.66358V9.03935C13.3965 9.10737 13.1893 9.25989 13.053 9.46876C12.9167 9.67763 12.8605 9.92876 12.8948 10.1758C12.9292 10.4228 13.0517 10.6491 13.2398 10.8129C13.4279 10.9767 13.6689 11.0669 13.9183 11.0669C14.1678 11.0669 14.4088 10.9767 14.5969 10.8129C14.785 10.6491 14.9075 10.4228 14.9419 10.1758C14.9762 9.92876 14.92 9.67763 14.7837 9.46876C14.6474 9.25989 14.4401 9.10737 14.2002 9.03935V8.66358C14.838 8.60963 15.4433 8.35883 15.9324 7.94587L16.2068 8.22018C16.1217 8.37448 16.0765 8.54754 16.0752 8.72371C16.0751 8.95056 16.1497 9.17115 16.2873 9.35144C16.425 9.53173 16.6182 9.6617 16.8371 9.7213C17.056 9.7809 17.2884 9.76682 17.4985 9.68123C17.7086 9.59564 17.8847 9.44329 17.9996 9.24769C18.1145 9.0521 18.1618 8.82412 18.1343 8.59894C18.1068 8.37376 18.006 8.16389 17.8474 8.00171C17.6887 7.83953 17.4812 7.73405 17.2566 7.70155C17.0321 7.66905 16.8032 7.71133 16.6051 7.82187L16.3308 7.54756C16.7437 7.05845 16.9945 6.45312 17.0485 5.81527H17.4242C17.4773 5.99913 17.5806 6.16456 17.7225 6.29299C17.8643 6.42142 18.0392 6.50777 18.2274 6.54235C18.4156 6.57692 18.6098 6.55836 18.788 6.48874C18.9663 6.41912 19.1216 6.30119 19.2366 6.1482C19.3515 5.99521 19.4216 5.81321 19.4388 5.62262C19.4561 5.43204 19.4199 5.24041 19.3343 5.06924C19.2488 4.89807 19.1172 4.75415 18.9543 4.65361C18.7915 4.55308 18.6039 4.49991 18.4125 4.50009ZM16.7591 2.01251C16.8488 1.92574 16.9688 1.87723 17.0936 1.87724C17.1709 1.87738 17.2469 1.89659 17.315 1.93317C17.3831 1.96975 17.4411 2.02257 17.4839 2.08695C17.5267 2.15132 17.5529 2.22526 17.5603 2.3022C17.5677 2.37914 17.5559 2.45672 17.5261 2.52804C17.4963 2.59935 17.4494 2.66222 17.3895 2.71105C17.3295 2.75988 17.2585 2.79317 17.1826 2.80797C17.1068 2.82276 17.0284 2.81861 16.9545 2.79587C16.8807 2.77313 16.8135 2.73252 16.7591 2.67762C16.6726 2.58855 16.6242 2.46925 16.6242 2.34507C16.6242 2.22088 16.6726 2.10158 16.7591 2.01251ZM13.4336 1.02425C13.4336 0.931347 13.4611 0.840534 13.5128 0.763291C13.5644 0.686047 13.6377 0.625844 13.7236 0.590293C13.8094 0.554742 13.9038 0.54544 13.9949 0.563564C14.0861 0.581687 14.1697 0.626423 14.2354 0.692113C14.3011 0.757803 14.3459 0.841497 14.364 0.932611C14.3821 1.02373 14.3728 1.11817 14.3373 1.204C14.3017 1.28982 14.2415 1.36318 14.1643 1.4148C14.087 1.46641 13.9962 1.49396 13.9033 1.49396C13.7787 1.49396 13.6593 1.44447 13.5712 1.35638C13.4831 1.26829 13.4336 1.14882 13.4336 1.02425ZM10.3824 2.67762C10.3387 2.63395 10.3041 2.5821 10.2804 2.52504C10.2568 2.46798 10.2446 2.40683 10.2446 2.34507C10.2446 2.28331 10.2568 2.22215 10.2804 2.16509C10.3041 2.10803 10.3387 2.05618 10.3824 2.01251C10.426 1.96884 10.4779 1.9342 10.5349 1.91056C10.592 1.88693 10.6532 1.87477 10.7149 1.87477C10.7767 1.87477 10.8378 1.88693 10.8949 1.91056C10.952 1.9342 11.0038 1.96884 11.0475 2.01251C11.134 2.10158 11.1824 2.22088 11.1824 2.34507C11.1824 2.46925 11.134 2.58855 11.0475 2.67762C10.9575 2.76244 10.8386 2.80968 10.7149 2.80968C10.5913 2.80968 10.4723 2.76244 10.3824 2.67762ZM9.3941 6.00316C9.3012 6.00316 9.21039 5.97561 9.13315 5.924C9.0559 5.87238 8.9957 5.79902 8.96015 5.7132C8.9246 5.62737 8.9153 5.53293 8.93342 5.44181C8.95154 5.3507 8.99628 5.267 9.06197 5.20131C9.12766 5.13562 9.21135 5.09089 9.30247 5.07276C9.39358 5.05464 9.48803 5.06394 9.57385 5.09949C9.65968 5.13504 9.73304 5.19525 9.78465 5.27249C9.83626 5.34973 9.86381 5.44055 9.86381 5.53345C9.86381 5.65802 9.81433 5.77749 9.72624 5.86558C9.63815 5.95367 9.51868 6.00316 9.3941 6.00316ZM11.0475 9.05438C10.9575 9.1392 10.8386 9.18645 10.7149 9.18645C10.5913 9.18645 10.4723 9.1392 10.3824 9.05438C10.3382 9.01101 10.3031 8.95926 10.2791 8.90216C10.2551 8.84506 10.2428 8.78375 10.2428 8.72183C10.2428 8.6599 10.2551 8.5986 10.2791 8.5415C10.3031 8.4844 10.3382 8.43265 10.3824 8.38927C10.4706 8.30108 10.5902 8.25153 10.7149 8.25153C10.8397 8.25153 10.9593 8.30108 11.0475 8.38927C11.1357 8.47747 11.1852 8.5971 11.1852 8.72183C11.1852 8.84656 11.1357 8.96618 11.0475 9.05438ZM14.373 10.0426C14.373 10.1355 14.3455 10.2264 14.2939 10.3036C14.2422 10.3808 14.1689 10.4411 14.0831 10.4766C13.9972 10.5122 13.9028 10.5215 13.8117 10.5033C13.7206 10.4852 13.6369 10.4405 13.5712 10.3748C13.5055 10.3091 13.4607 10.2254 13.4426 10.1343C13.4245 10.0432 13.4338 9.94873 13.4694 9.8629C13.5049 9.77707 13.5651 9.70371 13.6423 9.6521C13.7196 9.60049 13.8104 9.57294 13.9033 9.57294C14.0279 9.57294 14.1474 9.62243 14.2354 9.71051C14.3235 9.7986 14.373 9.91807 14.373 10.0426ZM17.4242 8.38927C17.5124 8.47747 17.562 8.5971 17.562 8.72183C17.562 8.84656 17.5124 8.96618 17.4242 9.05438C17.336 9.14258 17.2164 9.19213 17.0917 9.19213C16.967 9.19213 16.8473 9.14258 16.7591 9.05438C16.6726 8.96531 16.6242 8.84602 16.6242 8.72183C16.6242 8.59764 16.6726 8.47834 16.7591 8.38927C16.8488 8.3025 16.9688 8.25399 17.0936 8.254C17.1549 8.25368 17.2156 8.26547 17.2724 8.28868C17.3291 8.3119 17.3807 8.34608 17.4242 8.38927ZM13.9033 8.11497C13.3927 8.11497 12.8936 7.96356 12.4691 7.6799C12.0446 7.39624 11.7137 6.99306 11.5183 6.52135C11.3229 6.04964 11.2718 5.53058 11.3714 5.02982C11.471 4.52905 11.7169 4.06907 12.0779 3.70804C12.4389 3.34701 12.8989 3.10114 13.3997 3.00153C13.9004 2.90192 14.4195 2.95305 14.8912 3.14844C15.3629 3.34382 15.7661 3.6747 16.0498 4.09923C16.3334 4.52376 16.4848 5.02287 16.4848 5.53345C16.4838 6.2178 16.2115 6.87385 15.7276 7.35776C15.2437 7.84167 14.5877 8.11397 13.9033 8.11497ZM18.4125 6.00316C18.3196 6.00316 18.2288 5.97561 18.1515 5.924C18.0743 5.87238 18.0141 5.79902 17.9786 5.7132C17.943 5.62737 17.9337 5.53293 17.9518 5.44181C17.9699 5.3507 18.0147 5.267 18.0804 5.20131C18.1461 5.13562 18.2298 5.09089 18.3209 5.07276C18.412 5.05464 18.5064 5.06394 18.5923 5.09949C18.6781 5.13504 18.7514 5.19525 18.8031 5.27249C18.8547 5.34973 18.8822 5.44055 18.8822 5.53345C18.8822 5.65802 18.8327 5.77749 18.7446 5.86558C18.6566 5.95367 18.5371 6.00316 18.4125 6.00316Z" fill="#1661AB"/>
</svg>
